%YAML 1.1
%TAG !u! tag:unity3d.com,2011:
--- !u!114 &11400000
MonoBehaviour:
  m_ObjectHideFlags: 0
  m_CorrespondingSourceObject: {fileID: 0}
  m_PrefabInstance: {fileID: 0}
  m_PrefabAsset: {fileID: 0}
  m_GameObject: {fileID: 0}
  m_Enabled: 1
  m_EditorHideFlags: 0
  m_Script: {fileID: 11500000, guid: 577ce91bb73a6d442ae418967b138ed6, type: 3}
  m_Name: EnemyPool
  m_EditorClassIdentifier: 
  enemyPool:
  - {fileID: 8561907973921982845, guid: d0d58b5f4867863499d035f54330afe5, type: 3}
  - {fileID: 8561907973921982845, guid: 319cf4c2ab39fe04f8c256ba7ed9e1fb, type: 3}
  - {fileID: 8561907973921982845, guid: 64b0d620bcbd1054393e7aaa44f88a0f, type: 3}
